Calculate glyph positions for strings — shape_text • textshaping
…
pen_x
The horizontal position of the next glyph after the string

pen_y
The vertical position of the next glyph after the string

    Examples

string <- "This is a long string\nLook; It spans multiple lines\nand all"

# Shape with default settings
shape_text(string)
#> $shape
#> # A tibble: 57 × 12
#>    glyph index metric_id string_id x_offset y_offset font_path        font_index
#>    <int> <int>     <int>     <int>    <dbl>    <dbl> <chr>                 <int>
#>  1     1    55         1         1     0        2.83 /usr/share/font…          0
#>  2     2    75         1         1     7.33     2.83 /usr/share/font…          0
#>  3     3    76         1         1    14.9      2.83 /usr/share/font…          0
#>  4     4    86         1         1    18.3      2.83 /usr/share/font…          0
#>  5     5     3         1         1    24.5      2.83 /usr/share/font…          0
#>  6     6    76         1         1    28.3      2.83 /usr/share/font…          0
#>  7     7    86         1         1    31.7      2.83 /usr/share/font…          0
#>  8     8     3         1         1    37.9      2.83 /usr/share/font…          0
#>  9     9    68         1         1    41.7      2.83 /usr/share/font…          0
#> 10    10     3         1         1    49.1      2.83 /usr/share/font…          0
#> # ℹ 47 more rows
#> # ℹ 4 more variables: font_size <dbl>, advance <dbl>, ascender <dbl>,
#> #   descender <dbl>
…
# Mix styles within the same string
string <- c(
  "This string will have\na ",
  "very large",
  " text style\nin the middle"
)

shape_text(string, id = c(1, 1, 1), size = c(12, 24, 12))
#> $shape
#> # A tibble: 57 × 12
#>    glyph index metric_id string_id x_offset y_offset font_path        font_index
#>    <int> <int>     <int>     <int>    <dbl>    <dbl> <chr>                 <int>
#>  1     1    55         1         1     0        5.66 /usr/share/font…          0
#>  2     2    75         1         1     7.33     5.66 /usr/share/font…          0
#>  3     3    76         1         1    14.9      5.66 /usr/share/font…          0
#>  4     4    86         1         1    18.3      5.66 /usr/share/font…          0
#>  5     5     3         1         1    24.5      5.66 /usr/share/font…          0
#>  6     6    86         1         1    28.3      5.66 /usr/share/font…          0
#>  7     7    87         1         1    34.6      5.66 /usr/share/font…          0
#>  8     8    85         1         1    39.3      5.66 /usr/share/font…          0
#>  9     9    76         1         1    44.2      5.66 /usr/share/font…          0
#> 10    10    81         1         1    47.5      5.66 /usr/share/font…          0
#> # ℹ 47 more rows
#> # ℹ 4 more variables: font_size <dbl>, advance <dbl>, ascender <dbl>,
#> #   descender <dbl>
…
